191701 430147 449
946769 332616 525
4977 687538 509
758249 814224 468
357831 458747 449
972954 434668 525
728307 773606 468
145114 938147 525
823336 382526 509
396281 244846 441
149583 877208 525
220547 526945 470
298016 188074 443
456847 28687 449
659674 16314 509
612442 937827 525
868578 641051 525
551671 726410 509
972656 621989 525
729749 943689 525
777191 990887 525
316970 17606 443
590547 694416 509
220492 209355 386
992621 525458 525
416463 357136 449
688422 928491 525
203398 843806 525
680393 45179 509
181045 613665 470
946097 492411 525
39155 950627 525
550464 57923 470
387268 542990 470
335861 437727 449
616132 775421 509
594478 458221 470
12844 781032 509
774681 100521 509
21889 502493 449
97024 333778 443
768870 281385 509
138992 162323 383
625570 803154 509
131430 632523 509
966649 454447 525
861575 969186 507
152966 46561 375
654150 465045 509
798433 147022 509
376688 7510 443
924008 177229 525
660658 796952 504
239235 548182 470
219269 804608 509
97405 732193 509
173660 653360 509
46149 331581 443
912645 459873 525
594393 772061 509
846389 849159 419
359839 811324 509
345079 241069 407
681708 62937 509
19127 429656 449
220823 454320 449
548938 147495 470
232210 554773 470
131165 602122 470
384088 539289 470
93163 719800 509
350632 226668 443
857861 858004 282
876494 911707 476
338904 116214 443
121426 539344 470
209027 691646 509
932326 50819 525
424121 335071 449
330662 821743 509
775278 365467 509
814159 685637 504
501153 784676 509
22089 619932 470
179262 565088 470
838196 340290 525
30269 594845 470
572269 534635 452
651944 925456 525
760325 327283 509
105528 517783 470
827194 542904 509
931505 649892 525
63966 767925 509
759602 424050 509
354208 319920 441
663554 294051 509
368152 684058 509
60330 198047 383
967426 206645 525
534462 699976 509
956494 695904 525
200800 564177 470
761588 765864 375
577271 117746 470
312923 119197 443
52822 459971 449
737913 626384 504
544755 346120 470
563896 879400 525
956468 65567 525
638385 219616 509
60335 204958 383
316906 399236 441
979404 255859 525
198383 1258 383
593905 543447 452
951770 196510 525
776905 426256 509
92272 106829 354
348755 520676 470
609028 441334 470
173113 678855 509
787709 212887 509
148558 880152 525
377509 526459 470
680935 826490 504
765104 114417 509
104763 81513 341
920250 401569 525
538133 184660 470
680026 649717 442
395984 157785 443
289973 151933 443
895582 885700 445
903435 883167 445
6516 266382 443
470981 313662 449
592219 197007 470
202199 754156 509
26745 167352 383
507646 471148 426
815355 932136 525
649121 201761 509
504136 691521 509
575320 489258 470
374684 536305 470
473244 478757 382
170992 697889 509
794999 797563 468
706441 670834 504
663248 696783 442
765571 162897 509
649786 198625 509
24044 391989 443
238197 300261 407
522278 597571 452
273486 397023 441
799960 598383 509
182500 647391 509
283140 817684 509
382976 690824 509
700195 135014 509
613627 317626 470
428688 179022 449
449224 319448 449
791029 546474 509
271828 478098 449
710551 713625 411
568087 465211 470
618936 947373 525
17991 471970 449
701491 656290 442
634408 221107 509
646562 185176 509
946358 103798 525
713082 787410 468
181908 767910 509
579150 288051 470
107921 766274 509
707306 833873 468
264458 779226 509
1890 53338 340
451557 323213 449
791149 558295 509
93162 253097 443
629759 312291 509
921846 739273 525
765467 592860 509
210411 388644 443
881559 286338 525
45974 985530 525
414251 413523 374
159829 347245 443
274673 517742 470
969124 228832 525
831011 215189 509
108259 980512 525
541132 485482 470
301100 881613 525
85764 912473 525
23823 665117 509
189973 793194 509
143151 592081 470
458894 540192 470
466370 395708 449
833245 768450 468
973959 541492 525
95418 642004 509
89259 773442 509
19930 170913 383
838945 72370 525
319783 599024 470
571209 22272 470
596486 437817 470
381915 687717 509
274579 5035 443
519593 288355 470
221855 453162 449
415060 405097 449
137013 99654 354
660185 883624 525
850066 436531 525
521853 460224 470
952169 996316 458
509171 66060 449
125306 768765 509
773011 921395 525
178377 587870 470
99216 288192 443
644422 912740 525
706280 439038 509
90737 52743 351
500076 154106 449
263947 554146 470
213614 957608 525
408455 788867 509
666193 838103 525
394128 335281 441
534282 328907 470
880235 977572 507
575176 823170 509
598103 165350 470
68747 516568 470
132364 108391 349
43468 486190 449
822641 952780 525
317979 183535 443
358739 662646 509
340449 409854 441
