282042 989199 525
147985 445807 449
651736 688755 442
972176 291301 525
314679 314554 216
492645 143403 449
62237 508534 449
710299 580330 509
975632 944871 458
571311 467372 470
303443 98965 443
279283 366290 441
842493 246629 525
732810 39601 509
890653 294504 525
420069 467143 444
101540 81947 341
282901 89331 443
182014 127945 383
780996 780812 194
162634 943611 525
461435 52476 449
861145 157501 525
454013 359453 449
944937 27487 525
120006 937118 525
930488 418001 525
537246 332441 470
678005 203867 509
190286 685059 509
611520 477603 470
798134 337676 509
664455 644109 429
341861 512087 470
171083 737793 509
318035 320741 353
213765 16626 383
254726 317935 407
875011 392109 525
876806 706424 525
276960 865369 525
269453 837585 509
929330 50597 525
561739 90178 470
771163 777268 437
464909 275894 449
646031 401688 509
161402 16136 383
234276 82057 443
27419 162094 383
773039 664586 504
920686 735582 525
892603 542400 525
461719 112284 449
148047 715034 509
103853 711166 509
601096 903489 525
817880 582742 509
54830 419471 449
657933 511520 509
27507 300088 443
93488 453402 449
958798 243963 525
519218 263655 470
814383 360839 509
107727 397431 443
381694 295062 441
578293 79353 470
463692 787804 509
48161 998418 525
989463 402676 525
538653 392330 470
189964 231243 443
509705 834642 509
668200 791883 504
124684 127209 331
91753 710975 509
248319 331800 407
587097 478433 470
26085 726938 509
533580 550496 452
142720 746734 509
962638 679204 525
170655 684703 509
317137 537154 470
414384 900037 525
715168 8430 509
370755 129252 443
342057 313874 384
462995 759882 509
921167 3239 525
868754 148429 525
734301 624058 509
217421 166154 386
90054 281225 443
323857 972263 525
984081 960523 458
930542 90552 525
484117 48816 449
279956 317701 389
325519 791102 509
651251 601767 509
248892 502807 449
497296 78984 449
751101 123844 509
222231 156871 386
723309 751831 424
688415 460764 509
682166 220594 509
278402 512248 470
68068 377235 443
916433 295676 525
54086 324663 443
551347 500494 470
439396 213426 449
657471 295049 509
350406 173535 443
906122 131139 525
809832 971573 525
24354 142013 354
635537 803854 504
603370 874977 525
353454 520370 470
633223 801687 504
241484 88810 443
743301 506419 509
15404 281628 443
13156 443685 449
939657 912979 507
417654 391627 449
596369 496084 470
420412 533126 470
187546 598786 470
927398 129970 525
720552 634647 504
479448 440927 444
445584 492520 444
113117 951150 525
743612 572221 509
479846 870616 525
122454 939454 525
745094 949364 525
136427 700319 509
617690 945467 525
377099 989800 525
306154 246332 407
735938 488892 509
843473 905625 445
362427 501983 449
783667 944960 525
456284 355261 449
831116 240527 509
193953 145110 383
865276 601128 525
260262 772719 509
425244 307 449
925730 456298 525
838936 420350 525
614573 194520 470
238891 508977 449
417390 484544 444
579994 100468 470
856446 125088 525
760765 424552 509
476031 330696 449
277194 778332 509
25600 14978 282
137801 496106 449
975014 993054 427
130724 526206 470
998002 897641 507
224019 740965 509
227465 632629 509
912021 709697 525
804264 667786 504
791190 627729 504
225224 673169 509
211830 913052 525
994065 749836 525
190072 932515 525
86596 794149 509
54867 297890 443
112431 264134 443
793469 292335 509
348947 29700 443
170784 941640 525
574239 496511 470
618866 437228 470
742350 501098 509
19920 491266 449
433550 686525 509
952241 734253 525
338364 809589 509
485263 591306 470
312623 822184 509
740638 309511 509
74196 150730 375
420161 717100 509
792675 563656 509
695609 979582 525
