283866 240248 407
690865 807662 504
575094 118933 470
384997 201494 443
444882 769631 509
797041 636328 504
303854 659919 509
355673 441230 449
864533 725927 525
668963 809738 504
951010 337926 525
547202 517160 452
652815 942682 525
441615 361074 449
835731 668754 504
437236 105540 449
574789 479241 470
159315 461467 449
825523 200473 509
909149 855596 445
219182 160041 386
351565 257040 441
959716 232471 525
270386 704786 509
861332 688934 525
478423 867401 525
392727 368584 436
930818 670955 525
970530 909407 507
22056 857678 525
193827 179723 365
726170 236266 509
54174 33935 340
31453 750869 509
91736 326712 443
158428 541907 470
892223 103399 525
154852 564737 470
687443 520565 509
41414 418948 449
25021 227827 386
604740 46873 470
46891 356972 443
187287 445656 449
484332 70342 449
456179 7227 449
998815 352786 525
351636 273491 441
495593 873271 525
252240 174622 443
245931 347821 441
2005 622655 470
641892 920124 525
959466 630151 525
537581 858033 525
363223 244822 441
171388 641928 509
952976 987722 458
290932 697718 509
499913 953919 525
415383 39153 449
387153 912933 525
733564 968756 525
704081 859522 525
204242 562762 470
844582 716477 525
160349 535317 470
1 943993 525
685372 296615 509
935242 295385 525
430850 496559 444
284443 385298 441
412682 663227 509
475398 436944 444
573531 863724 525
74610 970230 525
891433 7882 525
240807 20731 443
853602 89316 525
665802 669273 398
805263 501308 509
292013 820538 509
516890 420868 470
761953 424854 509
384421 685773 509
25548 664861 509
201560 728878 509
176087 27105 383
914991 359447 525
780766 965781 525
606500 906946 525
630327 898226 525
902099 183041 525
208657 974349 525
292351 135893 443
866154 542359 525
649640 201785 509
416966 103013 449
563876 48299 470
623940 569279 447
447384 335341 449
920593 801584 525
67813 189298 383
878919 889105 445
723167 562088 509
487848 696873 509
657644 576684 509
738369 311403 509
19671 445137 449
378150 61514 443
420558 325304 449
687890 526024 509
447102 755227 509
814918 536245 509
883849 622167 525
44114 753061 509
289214 96313 443
379779 686063 509
252650 585810 470
626450 789566 504
383791 828166 509
92065 153881 375
765398 251996 509
109466 781548 509
314761 396237 441
201267 98054 383
361192 539572 470
339688 875439 525
603408 262990 470
338 991330 525
780184 234504 509
538570 699366 509
307728 41866 443
348687 243361 441
492764 389215 449
907443 516953 525
41889 631066 509
738622 512318 509
651758 951757 525
356994 567080 470
378480 542140 470
762461 754825 380
806160 805334 375
828635 53559 509
348044 394923 436
362596 709971 509
405049 586926 470
989250 781724 525
854709 549666 525
851062 560941 525
755804 742704 424
982188 593036 525
338959 347790 441
699636 156009 509
863069 199392 525
549568 930261 525
403764 681447 509
72143 670567 509
440674 222263 449
274537 600111 470
117824 167674 383
361371 269235 441
187025 966853 525
542539 852159 525
47965 463255 449
799411 211961 509
389356 891742 525
76915 465551 449
270059 377907 441
441655 524853 470
626132 994619 525
754837 284116 509
128971 621815 470
265339 490061 449
269975 36265 443
869002 844258 419
87851 933768 525
252826 559500 470
144852 152488 370
939001 392782 525
900561 81490 525
219451 429876 449
428789 864243 525
325456 135728 443
390274 266578 441
972454 779053 525
371225 705720 509
224537 725223 509
787947 674904 504
472471 449317 444
502654 938105 525
38665 192412 383
965802 271962 525
539177 276786 470
984315 564916 525
207615 107537 383
701541 313909 509
874200 685251 525
339003 606604 470
608060 73931 470
